\relax 
\newlabel{tocindent-1}{0pt}
\newlabel{tocindent0}{0pt}
\newlabel{tocindent1}{0pt}
\newlabel{tocindent2}{0pt}
\newlabel{tocindent3}{0pt}
\@writefile{lot}{\contentsline {table}{\numberline {1}{\ignorespaces Correlations}}{1}}
\@writefile{lot}{\contentsline {table}{\numberline {2}{\ignorespaces CEO Characteristics }}{1}}
\newlabel{sumstat}{{2}{1}}
\@writefile{lot}{\contentsline {table}{\numberline {3}{\ignorespaces Firm Characteristics }}{1}}
\newlabel{sumstat}{{3}{1}}
\@writefile{lot}{\contentsline {table}{\numberline {4}{\ignorespaces Contract Characteristics }}{2}}
\newlabel{sumstat}{{4}{2}}
